<?xml version="1.0" encoding="UTF-8" standalone="no"?>
<svg width="20px" height="19px" viewBox="0 0 20 19" version="1.1" xmlns="http://www.w3.org/2000/svg" xmlns:xlink="http://www.w3.org/1999/xlink">
    <!-- Generator: Sketch 3.8.2 (29753) - http://www.bohemiancoding.com/sketch -->
    <title>Stroke 17 Copy</title>
    <desc>Created with Sketch.</desc>
    <defs></defs>
    <g id="Blue-theme" stroke="none" stroke-width="1" fill="none" fill-rule="evenodd" stroke-linejoin="round">
        <g id="Repo-sidebar-–-blue-theme" transform="translate(-20.000000, -760.000000)" stroke="currentColor" stroke-width="2">
            <g id="Group-2" transform="translate(21.000000, 761.000000)">
                <g id="Stroke-17-Copy" transform="translate(9.000000, 8.500000) scale(-1, 1) translate(-9.000000, -8.500000) ">
                    <path d="M18,7.50675326 C18,11.6517483 13.9711304,15.0135065 9,15.0135065 C7.89026087,15.0135065 6.82826087,14.8454986 5.84686957,14.5390842 L0.674608696,17 L2.7,12.8670055 C1.03382609,11.5045414 0,9.60685209 0,7.50675326 C0,3.36095816 4.02886957,0 9,0 C13.9711304,0 18,3.36095816 18,7.50675326 L18,7.50675326 Z" id="Stroke-17"></path>
                    <path d="M5.67343923,6.23333336 L12.3447397,6.23333336" id="Stroke-106" stroke-linecap="round"></path>
                    <path d="M7.875,9.63333333 L12.3198298,9.63333336" id="Stroke-107" stroke-linecap="round"></path>
                </g>
            </g>
        </g>
    </g>
</svg>
