<?xml version="1.0" encoding="UTF-8" standalone="no"?>
<svg width="17px" height="16px" viewBox="0 0 17 16" version="1.1" xmlns="http://www.w3.org/2000/svg" xmlns:xlink="http://www.w3.org/1999/xlink">
    <!-- Generator: Sketch 3.8.2 (29753) - http://www.bohemiancoding.com/sketch -->
    <title>Group 3 Copy 2</title>
    <desc>Created with Sketch.</desc>
    <defs></defs>
    <g id="Blue-theme" stroke="none" stroke-width="1" fill="none" fill-rule="evenodd" stroke-linecap="round" stroke-linejoin="round">
        <g id="Repo-sidebar-–-blue-theme" transform="translate(-23.000000, -501.000000)" stroke="currentColor" stroke-width="2">
            <g id="Group-17" transform="translate(22.000000, 178.000000)">
                <g id="Group-3-Copy-2" transform="translate(9.500000, 331.000000) rotate(-270.000000) translate(-9.500000, -331.000000) translate(3.000000, 324.000000)">
                    <polyline id="Stroke-3331" points="12.6348292 0.723191605 12.6348292 4.33553728 9.02248356 4.33553728"></polyline>
                    <path d="M0,4.33336988 C0.892971852,1.80906272 3.30168395,0 6.13231802,0 C8.9629521,0 11.680881,1.78016395 12.5738528,4.30447111" id="Stroke-3332"></path>
                    <polyline id="Stroke-3333" points="0.351408988 13.1009663 0.351408988 9.48862064 3.96375467 9.48862064"></polyline>
                    <path d="M12.9860937,9.48862064 C12.0931219,12.0143727 9.68440978,13.8234355 6.8537757,13.8234355 C4.02314163,13.8234355 1.30521274,12.0432715 0.412240889,9.51751941" id="Stroke-3334"></path>
                </g>
            </g>
        </g>
    </g>
</svg>
